0.00713633
0.00697797
0.00683157
0.00669248
0.00656553
0.00644465
0.00633425
0.00623542
0.00614343
0.00606132
0.00598942
0.0059259
0.00586968
0.00582832
0.00579331
0.00576541
0.00574762
0.00574319
0.00574514
0.00575356
0.00577345
0.00580332
0.00584101
0.00588634
0.00594142
0.00600748
0.00607969
0.0061604
0.00625267
0.00634611
0.00645241
0.00656508
0.00668441
0.00681469
0.00695099
0.00709542
0.00724876
0.00740687
0.00757346
0.00773905
0.00792438
0.00810504
0.00829831
0.0084968
0.00870197
0.00891003
0.00912615
0.0093481
0.00957396
0.00980978
0.0100435
0.0102852
0.010531
0.0107844
0.0110396
0.0112974
0.0115669
0.0118304
0.0121062
0.0123779
0.0126581
0.0129349
0.0132199
0.0135086
0.0137945
0.0140868
0.0143815
0.0146766
0.0149716
0.0152736
0.0155705
0.0158748
0.0161766
0.0164796
0.0167845
0.0170857
0.0173935
0.017698
0.0180018
0.0183081
0.0186137
0.0189194
0.0192223
0.0195308
0.0198297
0.020132
0.0204378
0.0207394
0.0210361
0.021336
0.0216379
0.0219368
0.0222339
0.0225267
0.0228236
0.0231174
0.0234088
0.0237021
0.0239926
0.0242859
0.02457
0.0248584
0.0251483
0.0254345
0.0257273
0.0260116
0.0262979
0.0265868
0.0268697
0.0271569
0.0274393
0.0277283
0.0280181
0.0283045
0.0285971
0.0288825
0.0291736
0.0294705
0.0297631
0.0300577
0.0303546
0.0306549
0.0309591
0.0312651
0.0315693
0.031882
0.0321955
0.032513
0.0328331
0.0331613
0.0334881
0.0338242
0.0341611
0.0345007
0.0348529
0.035204
0.0355611
0.0359247
0.0362949
0.0366676
0.0370486
0.0374354
0.0378245
0.0382253
0.0386296
0.0390385
0.0394531
0.039876
0.0403067
0.040741
0.0411809
0.0416339
0.0420824
0.0425442
0.0430048
0.0434828
0.0439515
0.0444332
0.0449173
0.0454089
0.0459055
0.0463992
0.0468973
0.0473994
0.0479066
0.0484109
0.0489206
0.0494276
0.049939
0.0504501
0.0509527
0.0514607
0.0519641
0.0524684
0.0529666
0.0534586
0.053947
0.054433
0.0549116
0.055378
0.0558453
0.0563012
0.0567453
0.057187
0.0576139
0.0580278
0.0584351
0.0588314
0.0592162
0.0595839
0.0599441
0.0602874
0.060618
0.0609352
0.0612412
0.0615239
0.0617973
0.0620591
0.0623013
0.0625299
0.0627377
0.0629351
0.0631178
0.0632837
0.0634336
0.0635697
0.0636873
0.0637915
0.0638797
0.0639569
0.0640188
0.0640646
0.0640979
0.0641169
0.0641223
0.0641159
0.0640965
0.0640642
0.0640213
0.063965
0.0639019
0.0638246
0.0637363
0.0636411
0.0635347
0.063417
0.0632949
0.063166
0.0630238
0.06288
0.0627265
0.0625673
0.0624011
0.0622305
0.0620559
0.0618753
0.0616904
0.0615006
0.0613077
0.0611129
0.0609147
0.0607121
0.0605086
0.0603022
0.0600968
0.0598843
0.0596764
0.059463
0.0592502
0.0590379
0.0588251
0.0586132
0.0583987
0.0581848
0.0579725
0.0577585
0.0575477
0.0573355
0.057125
0.0569166
0.0567038
0.0564993
0.0562876
0.0560842
0.0558784
0.0556727
0.0554687
0.0552658
0.0550621
0.0548598
0.0546586
0.0544605
0.0542595
0.0540592
0.0538598
0.0536607
0.0534605
0.0532637
0.0530632
0.0528643
0.0526619
0.0524608
0.0522609
0.0520578
0.0518556
0.051649
0.0514443
0.0512377
0.0510269
0.0508152
0.0505998
0.0503839
0.0501656
0.0499422
0.0497187
0.0494916
0.0492595
0.0490255
0.0487873
0.0485441
0.0482984
0.0480458
0.0477944
0.0475314
0.0472674
0.0469976
0.0467221
0.0464432
0.0461572
0.0458698
0.0455697
0.0452711
0.0449617
0.0446493
0.044331
0.0440075
0.0436749
0.0433371
0.0429965
0.0426461
0.0422917
0.0419315
0.0415651
0.0411881
0.0408134
0.0404273
0.0400373
0.0396436
0.039242
0.0388346
0.0384282
0.0380116
0.037591
0.0371688
0.0367376
0.0363095
0.0358709
0.0354334
0.0349943
0.0345487
0.0341028
0.0336572
0.0332024
0.0327527
0.0323031
0.0318508
0.0313947
0.030947
0.0304944
0.0300445
0.0295957
0.0291465
0.0287039
0.0282605
0.0278229
0.027389
0.0269592
0.0265298
0.026109
0.0256916
